<svg width="32" height="32" viewBox="0 0 32 32" fill="none" xmlns="http://www.w3.org/2000/svg">
<rect width="32" height="32" rx="16" fill="#FE7902"/>
<path fill-rule="evenodd" clip-rule="evenodd" d="M12.625 11.3125C12.625 12.0374 12.0374 12.625 11.3125 12.625C10.5876 12.625 10 12.0374 10 11.3125C10 10.5876 10.5876 10 11.3125 10C12.0374 10 12.625 10.5876 12.625 11.3125ZM12.6835 13.75H10V22H12.6835V13.75ZM19.993 13.8468L19.9648 13.8376L19.9648 13.8376C19.9462 13.8314 19.9275 13.8252 19.9075 13.8197C19.8715 13.8115 19.8355 13.8047 19.7987 13.7987C19.6562 13.7703 19.5002 13.75 19.3173 13.75C17.7528 13.75 16.7605 14.8878 16.4335 15.3273V13.75H13.75V22H16.4335V17.5C16.4335 17.5 18.4615 14.6755 19.3173 16.75V22H22V16.4327C22 15.1862 21.1458 14.1475 19.993 13.8468Z" fill="white"/>
<path fill-rule="evenodd" clip-rule="evenodd" d="M12.625 11.3125C12.625 12.0374 12.0374 12.625 11.3125 12.625C10.5876 12.625 10 12.0374 10 11.3125C10 10.5876 10.5876 10 11.3125 10C12.0374 10 12.625 10.5876 12.625 11.3125ZM12.6835 13.75H10V22H12.6835V13.75ZM19.993 13.8468L19.9648 13.8376L19.9648 13.8376C19.9462 13.8314 19.9275 13.8252 19.9075 13.8197C19.8715 13.8115 19.8355 13.8047 19.7987 13.7987C19.6562 13.7703 19.5002 13.75 19.3173 13.75C17.7528 13.75 16.7605 14.8878 16.4335 15.3273V13.75H13.75V22H16.4335V17.5C16.4335 17.5 18.4615 14.6755 19.3173 16.75V22H22V16.4327C22 15.1862 21.1458 14.1475 19.993 13.8468Z" fill="white"/>
</svg>
